//+
Point(2) = {-1, 1, 0, 1.0};
//+
Point(3) = {1, 1, 0, 1.0};
//+
Point(4) = {-1, -1, 0, 1.0};
//+
Point(5) = {1, -1, 0, 1.0};
//+
Point(6) = {0.074, 0.545, 0, 0.5};
//+
Point(7) = {0.027, 0.503, 0, 0.5};
//+
Point(8) = {0.009, 0.45, 0, 0.5};
//+
Point(9) = {0.027, 0.402, 0, 0.5};
//+
Point(10) = {-0.021, 0.355, 0, 0.5};
//+
Point(11) = {-0.068, 0.301, 0, 0.5};
//+
Point(12) = {-0.039, 0.236, 0, 0.5};
//+
Point(13) = {0.074, 0.295, 0, 0.5};
//+
Point(14) = {0.074, 0.361, 0, 0.5};
//+
Point(15) = {0.169, 0.604, 0, 0.5};
//+
Point(16) = {0.092, 0.693, 0, 0.5};
//+
Point(17) = {0.039, 0.658, 0, 0.5};
//+
Point(18) = {0.247, 0.634, 0, 0.5};
//+
Point(19) = {0.466, 0.699, 0, 0.5};
//+
Point(20) = {0.68, 0.788, 0, 0.5};
//+
Point(21) = {0.882, 0.747, 0, 0.5};
//+
Point(22) = {0.92, 0.59, 0, 0.5};
//+
Point(23) = {0.829, 0.497, 0, 0.5};
//+
Point(24) = {0.775, 0.361, 0, 0.5};
//+
Point(25) = {0.657, 0.094, 0, 0.5};
//+
Point(26) = {0.609, 0.004, 0, 0.5};
//+
Point(27) = {0.544, 0.064, 0, 0.5};
//+
Point(28) = {0.49, -0.067, 0, 0.5};
//+
Point(29) = {0.431, 0.064, 0, 0.5};
//+
Point(30) = {0.009, 0.735, 0, 0.5};
//+
Point(31) = {0.062, 0.765, 0, 0.5};
//+
Point(32) = {0.14, 0.735, 0, 0.5};
//+
Point(33) = {0.371, 0.082, 0, 0.5};
//+
Point(34) = {0.205, 0.367, 0, 0.5};
//+
Point(35) = {0.3, 0.361, 0, 0.5};
//+
Point(36) = {0.276, 0.266, 0, 0.5};
//+
Point(37) = {0.258, 0.165, 0, 0.5};
//+
Point(38) = {0.258, 0.076, 0, 0.5};
//+
Point(39) = {0.276, -0.001, 0, 0.5};
//+
Point(40) = {0.371, -0.007, 0, 0.5};
//+
Point(41) = {0.365, 0.028, 0, 0.5};
//+
Point(42) = {0.324, 0.04, 0, 0.5};
//+
Point(43) = {0.324, 0.111, 0, 0.5};
//+
Point(44) = {0.668, -0.483, 0, 0.5};
//+
Point(45) = {0.746, -0.53, 0, 0.5};
//+
Point(46) = {0.847, -0.524, 0, 0.5};
//+
Point(47) = {0.918, -0.477, 0, 0.5};
//+
Point(48) = {0.977, -0.56, 0, 0.5};
//+
Point(49) = {0.966, -0.667, 0, 0.5};
//+
Point(50) = {0.942, -0.738, 0, 0.5};
//+
Point(51) = {0.87, -0.738, 0, 0.5};
//+
Point(52) = {0.805, -0.714, 0, 0.5};
//+
Point(53) = {0.71, -0.762, 0, 0.5};
//+
Point(54) = {0.645, -0.649, 0, 0.5};
//+
Point(55) = {0.639, -0.566, 0, 0.5};
//+
Point(56) = {-0.027, 0.153, 0, 0.5};
//+
Point(57) = {0.181, 0.135, 0, 0.5};
//+
Point(58) = {0.235, -0.049, 0, 0.5};
//+
Point(59) = {0.324, -0.085, 0, 0.5};
//+
Point(60) = {0.258, -0.346, 0, 0.5};
//+
Point(61) = {0.3, -0.405, 0, 0.5};
//+
Line(1) = {15, 16};
//+
Line(2) = {16, 17};
//+
Line(3) = {17, 30};
//+
Line(4) = {30, 31};
//+
Line(5) = {31, 32};
//+
Line(6) = {32, 18};
//+
Line(7) = {18, 19};
//+
Line(8) = {19, 20};
//+
Line(9) = {20, 21};
//+
Line(10) = {21, 22};
//+
Line(11) = {22, 23};
//+
Line(12) = {23, 24};
//+
Line(13) = {24, 25};
//+
Line(14) = {25, 26};
//+
Line(15) = {26, 27};
//+
Line(16) = {27, 28};
//+
Line(17) = {28, 29};
//+
Line(18) = {29, 33};
//+
Line(19) = {33, 43};
//+
Line(20) = {43, 42};
//+
Line(21) = {42, 41};
//+
Line(22) = {41, 40};
//+
Line(23) = {40, 39};
//+
Line(24) = {39, 38};
//+
Line(25) = {38, 37};
//+
Line(26) = {37, 36};
//+
Line(27) = {36, 35};
//+
Line(28) = {35, 34};
//+
Line(29) = {14, 14};
//+
Line(30) = {34, 34};
//+
Line(31) = {34, 14};
//+
Line(32) = {14, 13};
//+
Line(33) = {13, 12};
//+
Line(34) = {12, 11};
//+
Line(35) = {11, 10};
//+
Line(36) = {10, 9};
//+
Line(37) = {9, 8};
//+
Line(38) = {8, 7};
//+
Line(39) = {7, 6};
//+
Line(40) = {6, 15};
//+
Line(41) = {44, 45};
//+
Line(42) = {45, 46};
//+
Line(43) = {46, 47};
//+
Line(44) = {47, 48};
//+
Line(45) = {48, 49};
//+
Line(46) = {49, 50};
//+
Line(47) = {50, 51};
//+
Line(48) = {51, 52};
//+
Line(49) = {52, 53};
//+
Line(50) = {53, 54};
//+
Line(51) = {54, 55};
//+
Line(52) = {55, 44};
//+
Point(62) = {-0.128, 0.028, 0, 0.5};
//+
Point(63) = {-0.122, -0.144, 0, 0.5};
//+
Point(64) = {0.039, -0.186, 0, 0.5};
//+
Point(65) = {0.116, -0.762, 0, 0.5};
//+
Point(66) = {0.205, -0.744, 0, 0.5};
//+
Point(67) = {0.229, -0.453, 0, 0.5};
//+
Line(53) = {56, 57};
//+
Line(54) = {57, 58};
//+
Line(55) = {58, 59};
//+
Line(56) = {59, 60};
//+
Line(57) = {60, 61};
//+
Line(58) = {61, 67};
//+
Line(59) = {67, 66};
//+
Line(60) = {66, 65};
//+
Line(61) = {65, 64};
//+
Line(62) = {64, 63};
//+
Line(63) = {63, 62};
//+
Line(64) = {62, 56};
//+
Point(68) = {0.603, -0.108, 0, 0.5};
//+
Point(69) = {0.68, -0.209, 0, 0.5};
//+
Point(70) = {0.752, -0.239, 0, 0.5};
//+
Point(71) = {0.787, -0.292, 0, 0.5};
//+
Point(72) = {0.71, -0.287, 0, 0.5};
//+
Point(73) = {0.645, -0.233, 0, 0.5};
//+
Point(74) = {0.591, -0.18, 0, 0.5};
//+
Point(75) = {0.769, -0.079, 0, 0.5};
//+
Point(76) = {0.775, -0.144, 0, 0.5};
//+
Point(77) = {0.823, -0.168, 0, 0.5};
//+
Point(78) = {0.823, -0.102, 0, 0.5};
//+
Point(79) = {-0.015, 0.551, 0, 0.5};
//+
Point(80) = {-0.051, 0.539, 0, 0.5};
//+
Point(81) = {-0.051, 0.497, 0, 0.5};
//+
Point(82) = {-0.009, 0.503, 0, 0.5};
//+
Point(83) = {-0.954, 0.598, 0, 0.5};
//+
Point(84) = {-0.894, 0.67, 0, 0.5};
//+
Point(85) = {-0.799, 0.681, 0, 0.5};
//+
Point(86) = {-0.686, 0.604, 0, 0.5};
//+
Point(87) = {-0.627, 0.521, 0, 0.5};
//+
Point(88) = {-0.532, 0.545, 0, 0.5};
//+
Point(89) = {-0.437, 0.586, 0, 0.5};
//+
Point(90) = {-0.365, 0.497, 0, 0.5};
//+
Point(91) = {-0.431, 0.319, 0, 0.5};
//+
Point(92) = {-0.472, 0.171, 0, 0.5};
//+
Point(93) = {-0.55, -0.013, 0, 0.5};
//+
Point(94) = {-0.639, -0.025, 0, 0.5};
//+
Point(95) = {-0.948, 0.497, 0, 0.5};
//+
Point(96) = {-0.865, 0.45, 0, 0.5};
//+
Point(97) = {-0.781, 0.45, 0, 0.5};
//+
Point(98) = {-0.752, 0.343, 0, 0.5};
//+
Point(99) = {-0.769, 0.194, 0, 0.5};
//+
Point(100) = {-0.746, 0.058, 0, 0.5};
//+
Point(101) = {-0.686, -0.144, 0, 0.5};
//+
Point(102) = {-0.639, -0.085, 0, 0.5};
//+
Point(103) = {-0.633, -0.15, 0, 0.5};
//+
Point(104) = {-0.561, -0.162, 0, 0.5};
//+
Point(105) = {-0.502, -0.275, 0, 0.5};
//+
Point(106) = {-0.443, -0.34, 0, 0.5};
//+
Point(107) = {-0.496, -0.453, 0, 0.5};
//+
Point(108) = {-0.603, -0.809, 0, 0.5};
//+
Point(109) = {-0.662, -0.477, 0, 0.5};
//+
Point(110) = {-0.722, -0.393, 0, 0.5};
//+
Point(111) = {-0.746, -0.251, 0, 0.5};
//+
Line(65) = {68, 69};
//+
Line(66) = {69, 70};
//+
Line(67) = {70, 71};
//+
Line(68) = {71, 72};
//+
Line(69) = {72, 73};
//+
Line(70) = {73, 74};
//+
Line(71) = {74, 68};
//+
Line(72) = {76, 77};
//+
Line(73) = {77, 78};
//+
Line(74) = {78, 75};
//+
Line(75) = {75, 76};
//+
Line(76) = {80, 81};
//+
Line(77) = {81, 82};
//+
Line(78) = {82, 79};
//+
Line(79) = {79, 80};
//+
Line(80) = {85, 86};
//+
Line(81) = {86, 87};
//+
Line(82) = {87, 88};
//+
Line(83) = {88, 89};
//+
Line(84) = {89, 90};
//+
Line(85) = {90, 91};
//+
Line(86) = {91, 92};
//+
Line(87) = {92, 93};
//+
Line(88) = {94, 93};
//+
Line(89) = {94, 102};
//+
Line(90) = {102, 104};
//+
Line(91) = {104, 105};
//+
Line(92) = {105, 106};
//+
Line(93) = {106, 107};
//+
Line(94) = {107, 108};
//+
Line(95) = {108, 109};
//+
Line(96) = {109, 110};
//+
Line(97) = {110, 111};
//+
Line(98) = {111, 101};
//+
Line(99) = {101, 103};
//+
Line(100) = {103, 100};
//+
Line(101) = {100, 99};
//+
Line(102) = {99, 98};
//+
Line(103) = {98, 97};
//+
Line(104) = {97, 96};
//+
Line(105) = {96, 95};
//+
Line(106) = {95, 83};
//+
Line(107) = {83, 84};
//+
Line(108) = {84, 85};
//+
Point(112) = {-0.407, 0.83, 0, 0.5};
//+
Point(113) = {-0.348, 0.681, 0, 0.5};
//+
Point(114) = {-0.27, 0.628, 0, 0.5};
//+
Point(115) = {-0.217, 0.705, 0, 0.5};
//+
Point(116) = {-0.205, 0.848, 0, 0.5};
//+
Point(117) = {-0.324, 0.937, 0, 0.5};
//+
Line(109) = {117, 117};
//+
Line(110) = {112, 117};
//+
Line(111) = {117, 116};
//+
Line(112) = {116, 115};
//+
Line(113) = {115, 114};
//+
Line(114) = {114, 114};
//+
Line(115) = {114, 113};
//+
Line(116) = {113, 113};
//+
Line(117) = {113, 112};
//+
Line(118) = {2, 4};
//+
Line(119) = {5, 5};
//+
Line(120) = {5, 4};
//+
Line(121) = {3, 5};
//+
Line(122) = {3, 2};
//+
Physical Curve("Coast") = {107, 108, 80, 81, 82, 83, 84, 85, 86, 87, 88, 89, 90, 91, 92, 93, 94, 95, 96, 97, 98, 99, 100, 101, 102, 103, 104, 105, 106, 117, 110, 111, 112, 113, 115, 76, 79, 78, 77, 40, 39, 38, 37, 36, 35, 34, 33, 32, 31, 28, 27, 26, 25, 24, 23, 22, 21, 20, 19, 18, 17, 16, 15, 14, 13, 12, 11, 10, 9, 8, 7, 6, 5, 4, 3, 2, 1, 53, 64, 63, 62, 61, 60, 59, 58, 57, 56, 55, 54, 71, 70, 69, 68, 67, 66, 65, 75, 72, 73, 74, 41, 42, 43, 44, 45, 46, 47, 48, 49, 50, 51, 52};
//+
Physical Curve("Border") = {118, 120, 121, 122};
//+
Curve Loop(1) = {86, 87, -88, 89, 90, 91, 92, 93, 94, 95, 96, 97, 98, 99, 100, 101, 102, 103, 104, 105, 106, 107, 108, 80, 81, 82, 83, 84, 85};
//+
Curve Loop(2) = {115, 117, 110, 111, 112, 113};
//+
Curve Loop(3) = {1, 2, 3, 4, 5, 6, 7, 8, 9, 10, 11, 12, 13, 14, 15, 16, 17, 18, 19, 20, 21, 22, 23, 24, 25, 26, 27, 28, 31, 32, 33, 34, 35, 36, 37, 38, 39, 40};
//+
Curve Loop(4) = {76, 77, 78, 79};
//+
Curve Loop(5) = {53, 54, 55, 56, 57, 58, 59, 60, 61, 62, 63, 64};
//+
Curve Loop(6) = {70, 71, 65, 66, 67, 68, 69};
//+
Curve Loop(7) = {75, 72, 73, 74};
//+
Curve Loop(8) = {42, 43, 44, 45, 46, 47, 48, 49, 50, 51, 52, 41};
//+
Curve Loop(9) = {121, 120, -118, -122};
//+
Plane Surface(1) = {1, 2, 3, 4, 5, 6, 7, 8, 9};
//+
Physical Surface("Sea") = {1};
